FPGA_Vivado/ALU32.sim/sim_1/behav/xsim/alu32_gls.vcd
$date
   Tue Jun 30 21:34:20 2026
$end

$version
  2025.2
  $dumpfile ("alu32_gls.vcd") 
$end

$timescale
  1ps
$end

$scope module tb_alu32 $end
$var reg 32 ! A [31:0] $end
$var reg 32 " B [31:0] $end
$var reg 5 # alu_opcode [4:0] $end
$var wire 32 $ Result [31:0] $end
$var wire 1 % Z $end
$var wire 1 & N $end
$var wire 1 ' C $end
$var wire 1 ( P $end
$var wire 1 ) V $end
$var integer 32 * errors [31:0] $end
$var integer 32 + test_num [31:0] $end
$scope module DUT $end
$var wire 32 , A [31:0] $end
$var wire 32 - B [31:0] $end
$var wire 5 . alu_opcode [4:0] $end
$var reg 32 / Result [31:0] $end
$var wire 1 % Z $end
$var wire 1 & N $end
$var wire 1 ' C $end
$var wire 1 ( P $end
$var wire 1 ) V $end
$var reg 3 0 op_sel [2:0] $end
$var wire 32 1 arith_result [31:0] $end
$var wire 32 2 logic_result [31:0] $end
$var wire 32 3 shift_result [31:0] $end
$var wire 1 4 arith_Cout $end
$var wire 1 5 arith_Overflow $end
$var reg 1 6 arith_enable $end
$var reg 1 7 logic_enable $end
$var reg 1 8 shift_enable $end
$scope module AU $end
$var wire 32 , A [31:0] $end
$var wire 32 - B [31:0] $end
$var wire 3 9 opcode [2:0] $end
$var wire 1 : arith_enable $end
$var reg 32 ; Result [31:0] $end
$var reg 1 < Cout $end
$var reg 1 = V $end
$var reg 32 > cla_A [31:0] $end
$var reg 32 ? cla_B [31:0] $end
$var reg 1 @ cla_Cin $end
$var wire 32 A cla_Result [31:0] $end
$var wire 1 B cla_Cout $end
$scope module adder32 $end
$var wire 32 C A [31:0] $end
$var wire 32 D B [31:0] $end
$var wire 1 E Cin $end
$var wire 32 A S [31:0] $end
$var wire 1 B Cout $end
$var wire 1 F t1 $end
$var wire 1 G t2 $end
$var wire 1 H t3 $end
$scope module CLA0 $end
$var wire 8 I A [7:0] $end
$var wire 8 J B [7:0] $end
$var wire 1 E Cin $end
$var wire 8 K S [7:0] $end
$var wire 1 F Cout $end
$var wire 1 L t1 $end
$scope module CLA0 $end
$var wire 4 M A [3:0] $end
$var wire 4 N B [3:0] $end
$var wire 1 E Cin $end
$var wire 4 O S [3:0] $end
$var wire 1 L Cout $end
$var wire 4 P C [3:0] $end
$var wire 4 Q G [3:0] $end
$var wire 4 R P [3:0] $end
$upscope $end
$scope module CLA1 $end
$var wire 4 S A [7:4] $end
$var wire 4 T B [7:4] $end
$var wire 1 L Cin $end
$var wire 4 U S [7:4] $end
$var wire 1 F Cout $end
$var wire 4 V C [3:0] $end
$var wire 4 W G [3:0] $end
$var wire 4 X P [3:0] $end
$upscope $end
$upscope $end
$scope module CLA1 $end
$var wire 8 Y A [15:8] $end
$var wire 8 Z B [15:8] $end
$var wire 1 F Cin $end
$var wire 8 [ S [15:8] $end
$var wire 1 G Cout $end
$var wire 1 \ t1 $end
$scope module CLA0 $end
$var wire 4 ] A [11:8] $end
$var wire 4 ^ B [11:8] $end
$var wire 1 F Cin $end
$var wire 4 _ S [11:8] $end
$var wire 1 \ Cout $end
$var wire 4 ` C [3:0] $end
$var wire 4 a G [3:0] $end
$var wire 4 b P [3:0] $end
$upscope $end
$scope module CLA1 $end
$var wire 4 c A [15:12] $end
$var wire 4 d B [15:12] $end
$var wire 1 \ Cin $end
$var wire 4 e S [15:12] $end
$var wire 1 G Cout $end
$var wire 4 f C [3:0] $end
$var wire 4 g G [3:0] $end
$var wire 4 h P [3:0] $end
$upscope $end
$upscope $end
$scope module CLA2 $end
$var wire 8 i A [23:16] $end
$var wire 8 j B [23:16] $end
$var wire 1 G Cin $end
$var wire 8 k S [23:16] $end
$var wire 1 H Cout $end
$var wire 1 l t1 $end
$scope module CLA0 $end
$var wire 4 m A [19:16] $end
$var wire 4 n B [19:16] $end
$var wire 1 G Cin $end
$var wire 4 o S [19:16] $end
$var wire 1 l Cout $end
$var wire 4 p C [3:0] $end
$var wire 4 q G [3:0] $end
$var wire 4 r P [3:0] $end
$upscope $end
$scope module CLA1 $end
$var wire 4 s A [23:20] $end
$var wire 4 t B [23:20] $end
$var wire 1 l Cin $end
$var wire 4 u S [23:20] $end
$var wire 1 H Cout $end
$var wire 4 v C [3:0] $end
$var wire 4 w G [3:0] $end
$var wire 4 x P [3:0] $end
$upscope $end
$upscope $end
$scope module CLA3 $end
$var wire 8 y A [31:24] $end
$var wire 8 z B [31:24] $end
$var wire 1 H Cin $end
$var wire 8 { S [31:24] $end
$var wire 1 B Cout $end
$var wire 1 | t1 $end
$scope module CLA0 $end
$var wire 4 } A [27:24] $end
$var wire 4 ~ B [27:24] $end
$var wire 1 H Cin $end
$var wire 4 !! S [27:24] $end
$var wire 1 | Cout $end
$var wire 4 "! C [3:0] $end
$var wire 4 #! G [3:0] $end
$var wire 4 $! P [3:0] $end
$upscope $end
$scope module CLA1 $end
$var wire 4 %! A [31:28] $end
$var wire 4 &! B [31:28] $end
$var wire 1 | Cin $end
$var wire 4 '! S [31:28] $end
$var wire 1 B Cout $end
$var wire 4 (! C [3:0] $end
$var wire 4 )! G [3:0] $end
$var wire 4 *! P [3:0] $end
$upscope $end
$upscope $end
$upscope $end
$upscope $end
$scope module LU $end
$var wire 32 , A [31:0] $end
$var wire 32 - B [31:0] $end
$var wire 3 +! opcode [2:0] $end
$var wire 1 ,! logic_enable $end
$var reg 32 -! Result [31:0] $end
$upscope $end
$scope module SU $end
$var wire 32 , A [31:0] $end
$var wire 5 .! sh_amt [4:0] $end
$var wire 3 /! opcode [2:0] $end
$var wire 1 0! shift_enable $end
$var reg 32 1! Result [31:0] $end
$upscope $end
$upscope $end
$scope task run_test $end
$var reg 32 2! tA [31:0] $end
$var reg 32 3! tB [31:0] $end
$var reg 5 4! top [4:0] $end
$var reg 32 5! exp_result [31:0] $end
$var reg 1 6! exp_c $end
$var reg 1 7! exp_v $end
$var reg 1 8! exp_z $end
$var reg 1 9! exp_n $end
$var reg 1 :! exp_p $end
$upscope $end
$upscope $end
$enddefinitions $end

#0
$dumpvars
b1010 !
b0 !!
b10100 "
b0 "!
b0 #
b0 #!
b11110 $
b0 $!
0%
b0 %!
0&
b0 &!
0'
b0 '!
1(
b0 (!
0)
b0 )!
b0 *
b0 *!
b0 +
b0 +!
b1010 ,
0,!
b10100 -
b0 -!
b0 .
b10100 .!
b11110 /
b0 /!
b0 0
00!
b11110 1
b0 1!
b0 2
b1010 2!
b0 3
b10100 3!
04
b0 4!
05
b11110 5!
16
06!
07
07!
08
x8!
b0 9
x9!
1:
x:!
b11110 ;
0<
0=
b1010 >
b10100 ?
0@
b11110 A
0B
b1010 C
b10100 D
0E
0F
0G
0H
b1010 I
b10100 J
b11110 K
0L
b1010 M
b100 N
b1110 O
b0 P
b0 Q
b1110 R
b0 S
b1 T
b1 U
b0 V
b0 W
b1 X
b0 Y
b0 Z
b0 [
0\
b0 ]
b0 ^
b0 _
b0 `
b0 a
b0 b
b0 c
b0 d
b0 e
b0 f
b0 g
b0 h
b0 i
b0 j
b0 k
0l
b0 m
b0 n
b0 o
b0 p
b0 q
b0 r
b0 s
b0 t
b0 u
b0 v
b0 w
b0 x
b0 y
b0 z
b0 {
0|
b0 }
b0 ~
$end

#10000
b1111111111111111111111111111111 !
b0 !!
b1 "
b1111 "!
b10000000000000000000000000000000 $
b1111 $!
b111 %!
1&
b0 &!
b1000 '!
0(
b1111 (!
1)
b111 *!
b1 +
b1111111111111111111111111111111 ,
b1 -
b1 .!
b10000000000000000000000000000000 /
b10000000000000000000000000000000 1
b1111111111111111111111111111111 2!
b1 3!
15
b10000000000000000000000000000000 5!
17!
08!
09!
1:!
b10000000000000000000000000000000 ;
1=
b1111111111111111111111111111111 >
b1 ?
b10000000000000000000000000000000 A
b1111111111111111111111111111111 C
b1 D
1F
1G
1H
b11111111 I
b1 J
b0 K
1L
b1111 M
b1 N
b0 O
b1110 P
b1 Q
b1111 S
b0 T
b0 U
b1111 V
b1111 X
b11111111 Y
b0 Z
b0 [
1\
b1111 ]
b0 ^
b0 _
b1111 `
b1111 b
b1111 c
b0 d
b0 e
b1111 f
b1111 h
b11111111 i
b0 j
b0 k
1l
b1111 m
b0 n
b0 o
b1111 p
b1111 r
b1111 s
b0 t
b0 u
b1111 v
b1111 x
b1111111 y
b0 z
b10000000 {
1|
b1111 }
b0 ~

#20000
b11111111111111111111111111111111 !
b0 $
1%
b1111 %!
0&
1'
b0 '!
1(
0)
b1111 *!
b10 +
b11111111111111111111111111111111 ,
b0 /
b0 1
b11111111111111111111111111111111 2!
14
05
b0 5!
16!
07!
19!
0:!
b0 ;
1<
0=
b11111111111111111111111111111111 >
b0 A
1B
b11111111111111111111111111111111 C
b11111111 I
b1111 M
b1111 S
b11111111 Y
b1111 ]
b1111 c
b11111111 i
b1111 m
b1111 s
b11111111 y
b0 {
b1111 }

#30000
b10000000000000000000000000000000 !
b0 !!
b10000000000000000000000000000000 "
b0 "!
b0 $!
b1000 %!
b1000 &!
b0 '!
b0 (!
1)
b1000 )!
b0 *!
b11 +
b10000000000000000000000000000000 ,
b10000000000000000000000000000000 -
b0 .!
b10000000000000000000000000000000 2!
b10000000000000000000000000000000 3!
15
17!
18!
09!
1:!
1<
1=
b10000000000000000000000000000000 >
b10000000000000000000000000000000 ?
b0 A
b10000000000000000000000000000000 C
b10000000000000000000000000000000 D
0F
0G
0H
b0 I
b0 J
b0 K
0L
b0 M
b0 N
b0 P
b0 Q
b0 R
b0 S
b0 T
b0 U
b0 V
b0 X
b0 Y
b0 Z
b0 [
0\
b0 ]
b0 ^
b0 _
b0 `
b0 b
b0 c
b0 d
b0 e
b0 f
b0 h
b0 i
b0 j
b0 k
0l
b0 m
b0 n
b0 o
b0 p
b0 r
b0 s
b0 t
b0 u
b0 v
b0 x
b10000000 y
b10000000 z
b0 {
0|
b0 }
b0 ~

#40000
b10101010101010101010101010101010 !
b1111 !!
b1010101010101010101010101010101 "
b11111111111111111111111111111111 $
b1111 $!
0%
b1010 %!
1&
b101 &!
0'
b1111 '!
0)
b0 )!
b1111 *!
b100 +
b10101010101010101010101010101010 ,
b1010101010101010101010101010101 -
b10101 .!
b11111111111111111111111111111111 /
b11111111111111111111111111111111 1
b10101010101010101010101010101010 2!
b1010101010101010101010101010101 3!
04
05
b11111111111111111111111111111111 5!
06!
07!
b11111111111111111111111111111111 ;
0<
0=
b10101010101010101010101010101010 >
b1010101010101010101010101010101 ?
b11111111111111111111111111111111 A
0B
b10101010101010101010101010101010 C
b1010101010101010101010101010101 D
b10101010 I
b1010101 J
b11111111 K
b1010 M
b101 N
b1111 O
b1111 R
b1010 S
b101 T
b1111 U
b1111 X
b10101010 Y
b1010101 Z
b11111111 [
b1010 ]
b101 ^
b1111 _
b1111 b
b1010 c
b101 d
b1111 e
b1111 h
b10101010 i
b1010101 j
b11111111 k
b1010 m
b101 n
b1111 o
b1111 r
b1010 s
b101 t
b1111 u
b1111 x
b10101010 y
b1010101 z
b11111111 {
b1010 }
b101 ~

#50000
b110010 !
b0 !!
b10100 "
b1111 "!
b1 #
b11110 $
b0 %!
0&
b1111 &!
1'
b0 '!
b1111 (!
b101 +
b1 +!
b110010 ,
b10100 -
b1 .
b10100 .!
b11110 /
b1 /!
b1 0
b11110 1
b110010 2!
b10100 3!
14
b1 4!
b11110 5!
16
16!
08!
b1 9
19!
b11110 ;
1<
b110010 >
b11111111111111111111111111101011 ?
1@
b11110 A
1B
b110010 C
b11111111111111111111111111101011 D
1E
1F
1G
1H
b110010 I
b11101011 J
b11110 K
0L
b10 M
b1011 N
b1110 O
b111 P
b10 Q
b1001 R
b11 S
b1110 T
b1 U
b1100 V
b10 W
b1101 X
b0 Y
b11111111 Z
b0 [
1\
b0 ]
b1111 ^
b0 _
b1111 `
b0 c
b1111 d
b0 e
b1111 f
b0 i
b11111111 j
b0 k
1l
b0 m
b1111 n
b0 o
b1111 p
b0 s
b1111 t
b0 u
b1111 v
b0 y
b11111111 z
b0 {
1|
b0 }
b1111 ~

#60000
b10000000000000000000000000000000 !
b1111 !!
b1 "
b0 "!
b1111111111111111111111111111111 $
b1000 %!
b1111 &!
b111 '!
0(
b0 (!
1)
b1000 )!
b111 *!
b110 +
b10000000000000000000000000000000 ,
b1 -
b1 .!
b1111111111111111111111111111111 /
b1111111111111111111111111111111 1
b10000000000000000000000000000000 2!
b1 3!
15
b1111111111111111111111111111111 5!
17!
09!
b1111111111111111111111111111111 ;
1<
1=
b10000000000000000000000000000000 >
b11111111111111111111111111111110 ?
b1111111111111111111111111111111 A
b10000000000000000000000000000000 C
b11111111111111111111111111111110 D
0F
0G
0H
b0 I
b11111110 J
b11111111 K
b0 M
b1110 N
b1111 O
b1 P
b0 Q
b1110 R
b0 S
b1111 T
b1111 U
b0 V
b0 W
b1111 X
b0 Y
b11111111 Z
b11111111 [
0\
b0 ]
b1111 ^
b1111 _
b0 `
b0 c
b1111 d
b1111 e
b0 f
b0 i
b11111111 j
b11111111 k
0l
b0 m
b1111 n
b1111 o
b0 p
b0 s
b1111 t
b1111 u
b0 v
b10000000 y
b11111111 z
b1111111 {
0|
b0 }
b1111 ~

#70000
b101 !
b1010 "
b11111111111111111111111111111011 $
b0 %!
1&
b1111 &!
0'
b1111 '!
0)
b0 )!
b1111 *!
b111 +
b101 ,
b1010 -
b1010 .!
b11111111111111111111111111111011 /
b11111111111111111111111111111011 1
b101 2!
b1010 3!
04
05
b11111111111111111111111111111011 5!
06!
07!
0:!
b11111111111111111111111111111011 ;
0<
0=
b101 >
b11111111111111111111111111110101 ?
b11111111111111111111111111111011 A
0B
b101 C
b11111111111111111111111111110101 D
b101 I
b11110101 J
b11111011 K
b101 M
b101 N
b1011 O
b1011 P
b101 Q
b0 R
b0 S
b1111 T
b0 Y
b11111111 Z
b0 ]
b1111 ^
b0 c
b1111 d
b0 i
b11111111 j
b0 m
b1111 n
b0 s
b1111 t
b0 y
b11111111 z
b11111111 {
b0 }
b1111 ~

#80000
b1111111111111111111111111111111 !
b0 !!
b11111111111111111111111111111111 "
b1111 "!
b10000000000000000000000000000000 $
b111 %!
b0 &!
b1000 '!
b1111 (!
1)
b111 *!
b1000 +
b1111111111111111111111111111111 ,
b11111111111111111111111111111111 -
b11111 .!
b10000000000000000000000000000000 /
b10000000000000000000000000000000 1
b1111111111111111111111111111111 2!
b11111111111111111111111111111111 3!
15
b10000000000000000000000000000000 5!
17!
19!
b10000000000000000000000000000000 ;
1=
b1111111111111111111111111111111 >
b0 ?
b10000000000000000000000000000000 A
b1111111111111111111111111111111 C
b0 D
1F
1G
1H
b11111111 I
b0 J
b0 K
1L
b1111 M
b0 N
b0 O
b1111 P
b0 Q
b1111 R
b1111 S
b0 T
b0 U
b1111 V
b11111111 Y
b0 Z
b0 [
1\
b1111 ]
b0 ^
b0 _
b1111 `
b1111 c
b0 d
b0 e
b1111 f
b11111111 i
b0 j
b0 k
1l
b1111 m
b0 n
b0 o
b1111 p
b1111 s
b0 t
b0 u
b1111 v
b1111111 y
b0 z
b10000000 {
1|
b1111 }
b0 ~

#90000
b1100011 !
b0 !!
b0 "
b0 "!
b10 #
b1100100 $
b0 $!
b0 %!
0&
b0 '!
b0 (!
0)
b0 *!
b1001 +
b10 +!
b1100011 ,
b0 -
b10 .
b0 .!
b1100100 /
b10 /!
b10 0
b1100100 1
b1100011 2!
b0 3!
b10 4!
05
b1100100 5!
16
07!
b10 9
b1100100 ;
0=
b1100011 >
b1100100 A
b1100011 C
0F
0G
0H
b1100011 I
b1100100 K
0L
b11 M
b100 O
b111 P
b11 R
b110 S
b110 U
b0 V
b110 X
b0 Y
b0 [
0\
b0 ]
b0 _
b0 `
b0 b
b0 c
b0 e
b0 f
b0 h
b0 i
b0 k
0l
b0 m
b0 o
b0 p
b0 r
b0 s
b0 u
b0 v
b0 x
b0 y
b0 {
0|
b0 }

#100000
b11111111111111111111111111111111 !
b0 !!
b1111 "!
b0 $
b1111 $!
1%
b1111 %!
1'
b0 '!
1(
b1111 (!
b1111 *!
b1010 +
b11111111111111111111111111111111 ,
b0 /
b0 1
b11111111111111111111111111111111 2!
14
b0 5!
16!
09!
b0 ;
1<
b11111111111111111111111111111111 >
b0 A
1B
b11111111111111111111111111111111 C
1F
1G
1H
b11111111 I
b0 K
1L
b1111 M
b0 O
b1111 P
b1111 R
b1111 S
b0 U
b1111 V
b1111 X
b11111111 Y
b0 [
1\
b1111 ]
b0 _
b1111 `
b1111 b
b1111 c
b0 e
b1111 f
b1111 h
b11111111 i
b0 k
1l
b1111 m
b0 o
b1111 p
b1111 r
b1111 s
b0 u
b1111 v
b1111 x
b11111111 y
b0 {
1|
b1111 }

#110000
b1100100 !
b11 #
b1100011 $
0%
b0 %!
b1111 &!
b1011 +
b11 +!
b1100100 ,
b11 .
b1100011 /
b11 /!
b11 0
b1100011 1
b1100100 2!
b11 4!
b1100011 5!
16
18!
b11 9
1:!
b1100011 ;
1<
b1100100 >
b11111111111111111111111111111111 ?
0@
b1100011 A
b1100100 C
b11111111111111111111111111111111 D
0E
b1100100 I
b11111111 J
b1100011 K
1L
b100 M
b1111 N
b11 O
b1000 P
b100 Q
b1011 R
b110 S
b1111 T
b110 U
b1111 V
b110 W
b1001 X
b0 Y
b11111111 Z
b0 ]
b1111 ^
b0 c
b1111 d
b0 i
b11111111 j
b0 m
b1111 n
b0 s
b1111 t
b0 y
b11111111 z
b0 }
b1111 ~

#120000
b0 !
b1111 !!
b0 "!
b11111111111111111111111111111111 $
b0 %!
1&
0'
b1111 '!
b0 (!
b1100 +
b0 ,
b11111111111111111111111111111111 /
b11111111111111111111111111111111 1
b0 2!
04
b11111111111111111111111111111111 5!
06!
08!
b11111111111111111111111111111111 ;
0<
b0 >
b11111111111111111111111111111111 A
0B
b0 C
0F
0G
0H
b0 I
b11111111 K
0L
b0 M
b1111 O
b0 P
b0 Q
b1111 R
b0 S
b1111 U
b0 V
b0 W
b1111 X
b0 Y
b11111111 [
0\
b0 ]
b1111 _
b0 `
b0 c
b1111 e
b0 f
b0 i
b11111111 k
0l
b0 m
b1111 o
b0 p
b0 s
b1111 u
b0 v
b0 y
b11111111 {
0|
b0 }

#130000
b11011110101011011011111011101111 !
b0 !!
b11001010111111101011101010111110 "
b100 #
b11011110101011011011111011101111 $
b0 $!
b0 &!
b0 '!
b0 *!
b1101 +
b100 +!
b11011110101011011011111011101111 ,
b11001010111111101011101010111110 -
b100 .
b11110 .!
b11011110101011011011111011101111 /
b100 /!
b100 0
b11011110101011011011111011101111 1
b11011110101011011011111011101111 2!
b11001010111111101011101010111110 3!
b100 4!
b11011110101011011011111011101111 5!
16
b100 9
19!
b11011110101011011011111011101111 ;
b0 ?
b0 A
b0 D
b0 J
b0 K
b0 N
b0 O
b0 R
b0 T
b0 U
b0 X
b0 Z
b0 [
b0 ^
b0 _
b0 b
b0 d
b0 e
b0 h
b0 j
b0 k
b0 n
b0 o
b0 r
b0 t
b0 u
b0 x
b0 z
b0 {
b0 ~

#140000
b101 #
b11001010111111101011101010111110 $
b1110 +
b101 +!
b101 .
b11001010111111101011101010111110 /
b101 /!
b101 0
b11001010111111101011101010111110 1
b101 4!
b11001010111111101011101010111110 5!
16
b101 9
b11001010111111101011101010111110 ;

#150000
b11111111111111111111111111111111 !
b11111111111111111111111111111111 "
b1000 #
b11111111111111111111111111111111 $
0%
1&
b1111 +
b0 +!
b11111111111111111111111111111111 ,
1,!
b11111111111111111111111111111111 -
b11111111111111111111111111111111 -!
b1000 .
b11111 .!
b11111111111111111111111111111111 /
b0 /!
b0 0
b0 1
b11111111111111111111111111111111 2
b11111111111111111111111111111111 2!
b11111111111111111111111111111111 3!
b1000 4!
b11111111111111111111111111111111 5!
06
17
b0 9
0:
b0 ;

#160000
b0 "
b0 $
1%
0&
b10000 +
b0 -
b0 -!
b0 .!
b0 /
b0 2
b0 3!
b0 5!

#170000
b10101010101010101010101010101010 !
b1010101010101010101010101010101 "
b10001 +
b10101010101010101010101010101010 ,
b1010101010101010101010101010101 -
b10101 .!
b10101010101010101010101010101010 2!
b1010101010101010101010101010101 3!
18!
09!

#180000
b10010001101000101011001111000 !
b10000111011001010100001100100001 "
b10001001000100001000100000 $
0%
b10010 +
b10010001101000101011001111000 ,
b10000111011001010100001100100001 -
b10001001000100001000100000 -!
b1 .!
b10001001000100001000100000 /
b10001001000100001000100000 2
b10010001101000101011001111000 2!
b10000111011001010100001100100001 3!
b10001001000100001000100000 5!

#190000
b0 !
b0 "
b1001 #
b0 $
1%
b10011 +
b1 +!
b0 ,
b0 -
b0 -!
b1001 .
b0 .!
b0 /
b1 /!
b1 0
b0 2
b0 2!
b0 3!
b1001 4!
b0 5!
17
08!
b1 9

#200000
b11111111111111111111111111111111 !
b11111111111111111111111111111111 $
0%
1&
b10100 +
b11111111111111111111111111111111 ,
b11111111111111111111111111111111 -!
b11111111111111111111111111111111 /
b11111111111111111111111111111111 2
b11111111111111111111111111111111 2!
b11111111111111111111111111111111 5!
18!

#210000
b10101010101010101010101010101010 !
b1010101010101010101010101010101 "
b10101 +
b10101010101010101010101010101010 ,
b1010101010101010101010101010101 -
b10101 .!
b10101010101010101010101010101010 2!
b1010101010101010101010101010101 3!
08!
19!

#220000
b10010001101000101011001111000 !
b10000111011001010100001100100001 "
b10010111011101010101011101111001 $
b10110 +
b10010001101000101011001111000 ,
b10000111011001010100001100100001 -
b10010111011101010101011101111001 -!
b1 .!
b10010111011101010101011101111001 /
b10010111011101010101011101111001 2
b10010001101000101011001111000 2!
b10000111011001010100001100100001 3!
b10010111011101010101011101111001 5!

#230000
b0 !
b0 "
b1010 #
b11111111111111111111111111111111 $
b10111 +
b10 +!
b0 ,
b0 -
b11111111111111111111111111111111 -!
b1010 .
b0 .!
b11111111111111111111111111111111 /
b10 /!
b10 0
b11111111111111111111111111111111 2
b0 2!
b0 3!
b1010 4!
b11111111111111111111111111111111 5!
17
b10 9

#240000
b11111111111111111111111111111111 !
b0 $
1%
0&
b11000 +
b11111111111111111111111111111111 ,
b0 -!
b0 /
b0 2
b11111111111111111111111111111111 2!
b0 5!

#250000
b10101010101010101010101010101010 !
b1010101010101010101010101010101 $
0%
b11001 +
b10101010101010101010101010101010 ,
b1010101010101010101010101010101 -!
b1010101010101010101010101010101 /
b1010101010101010101010101010101 2
b10101010101010101010101010101010 2!
b1010101010101010101010101010101 5!
18!
09!

#260000
b10010001101000101011001111000 !
b11101101110010111010100110000111 $
1&
0(
b11010 +
b10010001101000101011001111000 ,
b11101101110010111010100110000111 -!
b11101101110010111010100110000111 /
b11101101110010111010100110000111 2
b10010001101000101011001111000 2!
b11101101110010111010100110000111 5!
08!

#270000
b11111111111111111111111111111111 !
b11111111111111111111111111111111 "
b1011 #
b0 $
1%
0&
1(
b11011 +
b11 +!
b11111111111111111111111111111111 ,
b11111111111111111111111111111111 -
b0 -!
b1011 .
b11111 .!
b0 /
b11 /!
b11 0
b0 2
b11111111111111111111111111111111 2!
b11111111111111111111111111111111 3!
b1011 4!
b0 5!
17
b11 9
19!
0:!

#280000
b10101010101010101010101010101010 !
b1010101010101010101010101010101 "
b11111111111111111111111111111111 $
0%
1&
b11100 +
b10101010101010101010101010101010 ,
b1010101010101010101010101010101 -
b11111111111111111111111111111111 -!
b10101 .!
b11111111111111111111111111111111 /
b11111111111111111111111111111111 2
b10101010101010101010101010101010 2!
b1010101010101010101010101010101 3!
b11111111111111111111111111111111 5!
18!
09!
1:!

#290000
b10010001101000101011001111000 !
b10000111011001010100001100100001 "
b10010101010100010001010101011001 $
b11101 +
b10010001101000101011001111000 ,
b10000111011001010100001100100001 -
b10010101010100010001010101011001 -!
b1 .!
b10010101010100010001010101011001 /
b10010101010100010001010101011001 2
b10010001101000101011001111000 2!
b10000111011001010100001100100001 3!
b10010101010100010001010101011001 5!
08!
19!

#300000
b11111111111111111111111111111111 !
b11111111111111111111111111111111 "
b1100 #
b0 $
1%
0&
b11110 +
b100 +!
b11111111111111111111111111111111 ,
b11111111111111111111111111111111 -
b0 -!
b1100 .
b11111 .!
b0 /
b100 /!
b100 0
b0 2
b11111111111111111111111111111111 2!
b11111111111111111111111111111111 3!
b1100 4!
b0 5!
17
b100 9

#310000
b0 "
b11111111111111111111111111111111 $
0%
1&
b11111 +
b0 -
b11111111111111111111111111111111 -!
b0 .!
b11111111111111111111111111111111 /
b11111111111111111111111111111111 2
b0 3!
b11111111111111111111111111111111 5!
18!
09!

#320000
b10101010101010101010101010101010 !
b1010101010101010101010101010101 "
b100000 +
b10101010101010101010101010101010 ,
b1010101010101010101010101010101 -
b10101 .!
b10101010101010101010101010101010 2!
b1010101010101010101010101010101 3!
08!
19!

#330000
b11111111111111111111111111111111 !
b11111111111111111111111111111111 "
b1101 #
b0 $
1%
0&
b100001 +
b101 +!
b11111111111111111111111111111111 ,
b11111111111111111111111111111111 -
b0 -!
b1101 .
b11111 .!
b0 /
b101 /!
b101 0
b0 2
b11111111111111111111111111111111 2!
b11111111111111111111111111111111 3!
b1101 4!
b0 5!
17
b101 9

#340000
b0 !
b0 "
b11111111111111111111111111111111 $
0%
1&
b100010 +
b0 ,
b0 -
b11111111111111111111111111111111 -!
b0 .!
b11111111111111111111111111111111 /
b11111111111111111111111111111111 2
b0 2!
b0 3!
b11111111111111111111111111111111 5!
18!
09!

#350000
b10101010101010101010101010101010 !
b1010101010101010101010101010101 "
b0 $
1%
0&
b100011 +
b10101010101010101010101010101010 ,
b1010101010101010101010101010101 -
b0 -!
b10101 .!
b0 /
b0 2
b10101010101010101010101010101010 2!
b1010101010101010101010101010101 3!
b0 5!
08!
19!

#360000
b11111111111111111111111111111111 !
b11111111111111111111111111111111 "
b1110 #
b11111111111111111111111111111111 $
0%
1&
b100100 +
b110 +!
b11111111111111111111111111111111 ,
b11111111111111111111111111111111 -
b11111111111111111111111111111111 -!
b1110 .
b11111 .!
b11111111111111111111111111111111 /
b110 /!
b110 0
b11111111111111111111111111111111 2
b11111111111111111111111111111111 2!
b11111111111111111111111111111111 3!
b1110 4!
b11111111111111111111111111111111 5!
17
18!
b110 9
09!

#370000
b10101010101010101010101010101010 !
b1010101010101010101010101010101 "
b0 $
1%
0&
b100101 +
b10101010101010101010101010101010 ,
b1010101010101010101010101010101 -
b0 -!
b10101 .!
b0 /
b0 2
b10101010101010101010101010101010 2!
b1010101010101010101010101010101 3!
b0 5!
08!
19!

#380000
b10010001101000101011001111000 !
b10000111011001010100001100100001 "
b1101010101011101110101010100110 $
0%
b100110 +
b10010001101000101011001111000 ,
b10000111011001010100001100100001 -
b1101010101011101110101010100110 -!
b1 .!
b1101010101011101110101010100110 /
b1101010101011101110101010100110 2
b10010001101000101011001111000 2!
b10000111011001010100001100100001 3!
b1101010101011101110101010100110 5!
18!
09!

#390000
b1 !
b1 "
b10000 #
b10 $
0%
0(
b100111 +
b0 +!
b1 ,
0,!
b1 -
b0 -!
b10000 .
b1 .!
b10 /
b0 /!
b0 0
10!
b10 1!
b0 2
b1 2!
b10 3
b1 3!
b10000 4!
b10 5!
07
18
08!
b0 9

#400000
b11111 "
b10000000000000000000000000000000 $
1&
b101000 +
b11111 -
b11111 .!
b10000000000000000000000000000000 /
b10000000000000000000000000000000 1!
b10000000000000000000000000000000 3
b11111 3!
b10000000000000000000000000000000 5!
0:!

#410000
b10101010101010101010101010101010 !
b100 "
b10101010101010101010101010100000 $
1(
b101001 +
b10101010101010101010101010101010 ,
b100 -
b100 .!
b10101010101010101010101010100000 /
b10101010101010101010101010100000 1!
b10101010101010101010101010101010 2!
b10101010101010101010101010100000 3
b100 3!
b10101010101010101010101010100000 5!
19!

#420000
b10000000000000000000000000000000 !
b1 "
b10001 #
b1000000000000000000000000000000 $
0&
0(
b101010 +
b1 +!
b10000000000000000000000000000000 ,
b1 -
b10001 .
b1 .!
b1000000000000000000000000000000 /
b1 /!
b1 0
b1000000000000000000000000000000 1!
b10000000000000000000000000000000 2!
b1000000000000000000000000000000 3
b1 3!
b10001 4!
b1000000000000000000000000000000 5!
18
b1 9
1:!

#430000
b11111111111111111111111111111111 !
b1111111111111111111111111111111 $
b101011 +
b11111111111111111111111111111111 ,
b1111111111111111111111111111111 /
b1111111111111111111111111111111 1!
b11111111111111111111111111111111 2!
b1111111111111111111111111111111 3
b1111111111111111111111111111111 5!
09!
0:!

#440000
b10010001101000101011001111000 !
b100 "
b1001000110100010101100111 $
1(
b101100 +
b10010001101000101011001111000 ,
b100 -
b100 .!
b1001000110100010101100111 /
b1001000110100010101100111 1!
b10010001101000101011001111000 2!
b1001000110100010101100111 3
b100 3!
b1001000110100010101100111 5!

#450000
b10000000000000000000000000000000 !
b1 "
b10010 #
b11000000000000000000000000000000 $
1&
b101101 +
b10 +!
b10000000000000000000000000000000 ,
b1 -
b10010 .
b1 .!
b11000000000000000000000000000000 /
b10 /!
b10 0
b11000000000000000000000000000000 1!
b10000000000000000000000000000000 2!
b11000000000000000000000000000000 3
b1 3!
b10010 4!
b11000000000000000000000000000000 5!
18
b10 9
1:!

#460000
b11111111111111111111111111111111 !
b11111111111111111111111111111111 $
b101110 +
b11111111111111111111111111111111 ,
b11111111111111111111111111111111 /
b11111111111111111111111111111111 1!
b11111111111111111111111111111111 2!
b11111111111111111111111111111111 3
b11111111111111111111111111111111 5!
19!

#470000
b10000000000000000000000000000000 !
b11111 "
b101111 +
b10000000000000000000000000000000 ,
b11111 -
b11111 .!
b10000000000000000000000000000000 2!
b11111 3!

